^C:\USERS\ALEX\SOURCE\REPOS\PROJECT1\DEBUG\HELPERS.OBJ|C:\USERS\ALEX\SOURCE\REPOS\PROJECT1\DEBUG\MAIN.OBJ|C:\USERS\ALEX\SOURCE\REPOS\PROJECT1\DEBUG\MATH.OBJ
C:\USERS\ALEX\SOURCE\REPOS\PROJECT1\DEBUG\PROJECT1.EXE
C:\USERS\ALEX\SOURCE\REPOS\PROJECT1\DEBUG\PROJECT1.ILK
C:\USERS\ALEX\SOURCE\REPOS\PROJECT1\DEBUG\PROJECT1.PDB
